<?xml version="1.0" encoding="UTF-8"?>
<svg version="1.1" viewBox="0 0 272 197" xmlns="http://www.w3.org/2000/svg" xmlns:cc="http://creativecommons.org/ns#" xmlns:dc="http://purl.org/dc/elements/1.1/" xmlns:rdf="http://www.w3.org/1999/02/22-rdf-syntax-ns#">
<metadata>
<rdf:RDF>
<cc:Work rdf:about="">
<dc:format>image/svg+xml</dc:format>
<dc:type rdf:resource="http://purl.org/dc/dcmitype/StillImage"/>
<dc:title/>
</cc:Work>
</rdf:RDF>
</metadata>
<path d="m6.5456 196.46c-3.5976-1.1123-4.0696-1.6668-5.2309-6.1452-0.98825-3.811-1.0222-6.2774-0.15039-10.923 1.4565-7.7602 2.6758-10.07 8.9288-16.911 10.048-10.994 31.765-23.403 57.063-32.606 15.092-5.4902 15.896-5.3464 28.272 5.0592 5.2058 4.377 9.8395 7.9582 10.297 7.9582 0.45772 0 4.8693-3.374 9.8034-7.4979 12.479-10.429 13.697-10.701 27.164-6.0612 13.085 4.5084 32.562 13.686 41.999 19.791 16.482 10.662 26.098 23.159 27.04 35.143 0.60214 7.6582-1.4555 10.815-8.1488 12.5-6.6197 1.6669-191.59 1.3786-197.04-0.30706zm169.45-23.043c0-1.7668-33.212-18.364-40.082-20.031-2.1919-0.53169-4.0791 0.6432-12.5 7.782-11.694 9.9139-13.066 10.724-18.158 10.724-4.2902 0-5.3549-0.67847-18.437-11.75-4.7118-3.9875-9.0221-7.25-9.5785-7.25-3.8125 0-34.233 14.67-39.461 19.03-2.2489 1.8753-1.2337 1.9042 67.967 1.937 38.638 0.0183 70.25-0.18074 70.25-0.4423zm40.636 1.8392c-1.8235-1.8235-2.6364-3.6938-2.6364-6.0658 0-8.477 3.7034-10.284 21.2-10.343l13.3-0.0448-4.8393-4.3379c-2.6616-2.3858-7.75-6.0401-11.308-8.1207-9.9756-5.834-12.222-9.937-8.9281-16.307 1.43-2.7654 5.2638-5.145 8.289-5.145 4.6439 0 22.322 12.034 30.429 20.714 5.807 6.2174 7.2807 9.118 8.7822 17.286 1.0081 5.4836 0.95686 7.0674-0.32788 10.129-0.83759 1.9958-2.2515 3.9083-3.1419 4.25-0.89048 0.3417-12.096 0.62128-24.901 0.62128h-23.282zm-28.279-44.356c-10.046-1.4913-23.121-9.6277-25.492-15.863-1.1978-3.1503 0.57304-8.6376 3.4341-10.642 3.3614-2.3544 9.0786-1.8977 12.523 1.0003 10.439 8.7836 23.161 8.5496 32.345-0.59502 4.7967-4.7762 6.8171-9.4494 6.8275-15.792 0.0216-13.11-12.34-24.533-24.678-22.804-2.099 0.29408-5.981 0.85576-8.6265 1.2482-7.4675 1.1077-11.69-2.2821-11.69-9.3847 0-4.2203 2.4955-6.8417 8.7586-9.2006 4.7935-1.8054 7.3098-2.0986 15.241-1.7759 8.315 0.33824 10.337 0.80117 16.21 3.7113 20.4 10.108 29.74 34.589 20.858 54.669-7.8684 17.788-26.682 28.254-45.711 25.429zm-90.585-4.0577c-37.239-4.3213-63.1-41.979-53.8-78.341 4.4015-17.21 16.738-33.084 31.834-40.964 10.686-5.5777 25.165-7.6014 40.537-5.6657 20.916 2.6338 37 14.54 46.634 34.52 4.5962 9.5319 6.299 17.162 6.2625 28.061-0.0871 25.963-16.674 49.549-41.383 58.843-5.915 2.2249-8.819 2.7971-20.356 4.0114-1.65 0.17365-6.0277-0.0356-9.7282-0.46503zm15.429-25.075c11.473-2.4342 21.301-9.6933 26.57-19.624 10.548-19.88 3.2504-42.906-16.939-53.446-5.9939-3.1292-6.8933-3.3059-16.832-3.3059-9.2991 0-11.154 0.30653-16.218 2.6801-7.9846 3.7424-15.137 10.765-19.041 18.694-3.0014 6.0967-3.2413 7.3256-3.2413 16.605 0 8.8062 0.32845 10.722 2.7094 15.803 5.3858 11.494 14.135 18.996 25.791 22.115 6.8002 1.8194 10.409 1.9198 17.201 0.47877z" fill="#e0e0e0"/>
</svg>
